<svg width="85" height="85" viewBox="0 0 85 85" fill="none" xmlns="http://www.w3.org/2000/svg">
<g filter="url(#filter0_d)">
<circle cx="42.5" cy="29.9915" r="24.0083" fill="#A4A4A4"/>
</g>
<path d="M42.5 7.31714C29.2403 7.31714 18.4916 17.494 18.4916 30.0481C18.4916 42.6022 29.2403 52.779 42.5 52.779C55.7596 52.779 66.5084 42.6022 66.5084 30.0481C66.5084 17.494 55.7596 7.31714 42.5 7.31714ZM52.2659 25.9376C52.2759 26.1317 52.2784 26.3259 52.2784 26.5153C52.2784 32.4348 47.5242 39.2565 38.8262 39.2565C36.256 39.2605 33.7393 38.5616 31.5786 37.2438C31.9463 37.2864 32.3239 37.303 32.7065 37.303C34.9223 37.303 36.9605 36.5903 38.5786 35.3875C37.5925 35.3691 36.6371 35.06 35.8454 34.5031C35.0537 33.9463 34.4653 33.1694 34.162 32.2809C34.8702 32.4084 35.5997 32.3817 36.2953 32.2028C35.225 31.9979 34.2626 31.4488 33.5711 30.6487C32.8796 29.8486 32.5017 28.8467 32.5015 27.8129V27.7584C33.1392 28.0923 33.8694 28.2959 34.6447 28.3196C33.6414 27.6872 32.9311 26.7158 32.6591 25.604C32.3872 24.4922 32.5741 23.3241 33.1817 22.3385C34.3695 23.7213 35.8508 24.8525 37.5296 25.6589C39.2085 26.4653 41.0475 26.9289 42.9276 27.0196C42.6886 26.059 42.7915 25.0506 43.2202 24.1511C43.649 23.2515 44.3797 22.5113 45.2986 22.0455C46.2176 21.5797 47.2733 21.4144 48.3017 21.5753C49.3301 21.7362 50.2736 22.2142 50.9854 22.9352C52.0437 22.7369 53.0586 22.3694 53.9865 21.8484C53.6338 22.8858 52.8953 23.7667 51.9082 24.3274C52.8457 24.2205 53.7611 23.9819 54.6242 23.6195C53.9902 24.519 53.1915 25.304 52.2659 25.9376Z" fill="white"/>
<defs>
<filter id="filter0_d" x="0.491699" y="0.983154" width="84.0166" height="84.0166" filterUnits="userSpaceOnUse" color-interpolation-filters="sRGB">
<feFlood flood-opacity="0" result="BackgroundImageFix"/>
<feColorMatrix in="SourceAlpha" type="matrix" values="0 0 0 0 0 0 0 0 0 0 0 0 0 0 0 0 0 0 127 0"/>
<feOffset dy="13"/>
<feGaussianBlur stdDeviation="9"/>
<feColorMatrix type="matrix" values="0 0 0 0 0.0658854 0 0 0 0 0.0730469 0 0 0 0 0.1375 0 0 0 0.08 0"/>
<feBlend mode="normal" in2="BackgroundImageFix" result="effect1_dropShadow"/>
<feBlend mode="normal" in="SourceGraphic" in2="effect1_dropShadow" result="shape"/>
</filter>
</defs>
</svg>
